^D:\SO2\BOMBERMAN - CLIENTE2D\CLIENTE2D\CLIENTE2D\CLIENTE2D.CPP|D:\SO2\BOMBERMAN - CLIENTE2D\CLIENTE2D\CLIENTE2D\TABLE.CPP
D:\SO2\BOMBERMAN - CLIENTE2D\CLIENTE2D\CLIENTE2D\DEBUG\VC120.PDB
D:\SO2\BOMBERMAN - CLIENTE2D\CLIENTE2D\CLIENTE2D\DEBUG\VC120.IDB
D:\SO2\BOMBERMAN - CLIENTE2D\CLIENTE2D\CLIENTE2D\DEBUG\CLIENTE2D.OBJ
D:\SO2\BOMBERMAN - CLIENTE2D\CLIENTE2D\CLIENTE2D\DEBUG\TABLE.OBJ
^D:\SO2\BOMBERMAN - CLIENTE2D\CLIENTE2D\CLIENTE2D\CLIENTE2D.CPP
D:\SO2\BOMBERMAN - CLIENTE2D\CLIENTE2D\CLIENTE2D\DEBUG\VC120.PDB
D:\SO2\BOMBERMAN - CLIENTE2D\CLIENTE2D\CLIENTE2D\DEBUG\VC120.IDB
D:\SO2\BOMBERMAN - CLIENTE2D\CLIENTE2D\CLIENTE2D\DEBUG\CLIENTE2D.OBJ
^D:\SO2\BOMBERMAN - CLIENTE2D\CLIENTE2D\CLIENTE2D\TABLE.CPP
D:\SO2\BOMBERMAN - CLIENTE2D\CLIENTE2D\CLIENTE2D\DEBUG\VC120.PDB
D:\SO2\BOMBERMAN - CLIENTE2D\CLIENTE2D\CLIENTE2D\DEBUG\VC120.IDB
D:\SO2\BOMBERMAN - CLIENTE2D\CLIENTE2D\CLIENTE2D\DEBUG\TABLE.OBJ
