^D:\SO2\Bomberman - Cliente2D\Cliente2D\Cliente2D\Cliente2D.vcxproj
D:\SO2\Bomberman - Cliente2D\Cliente2D\Debug\Cliente2D.lib
D:\SO2\Bomberman - Cliente2D\Cliente2D\Debug\Cliente2D.exp
^D:\SO2\Bomberman - Cliente2D\Cliente2D\Cliente2D\Cliente2D.vcxproj
D:\SO2\Bomberman - Cliente2D\Cliente2D\Debug\Cliente2D.lib
D:\SO2\Bomberman - Cliente2D\Cliente2D\Debug\Cliente2D.exp
^D:\SO2\Bomberman - Cliente2D\Cliente2D\Cliente2D\Cliente2D.vcxproj
D:\SO2\Bomberman - Cliente2D\Cliente2D\Debug\Cliente2D.lib
D:\SO2\Bomberman - Cliente2D\Cliente2D\Debug\Cliente2D.exp
^D:\SO2\Bomberman - Cliente2D\Cliente2D\Cliente2D\Cliente2D.vcxproj
D:\SO2\Bomberman - Cliente2D\Cliente2D\Debug\Cliente2D.lib
D:\SO2\Bomberman - Cliente2D\Cliente2D\Debug\Cliente2D.exp
^D:\SO2\Bomberman - Cliente2D\Cliente2D\Cliente2D\Cliente2D.vcxproj
D:\SO2\Bomberman - Cliente2D\Cliente2D\Debug\Cliente2D.lib
D:\SO2\Bomberman - Cliente2D\Cliente2D\Debug\Cliente2D.exp
^D:\SO2\Bomberman - Cliente2D\Cliente2D\Cliente2D\Cliente2D.vcxproj
D:\SO2\Bomberman - Cliente2D\Cliente2D\Debug\Cliente2D.lib
D:\SO2\Bomberman - Cliente2D\Cliente2D\Debug\Cliente2D.exp
^D:\SO2\Bomberman - Cliente2D\Cliente2D\Cliente2D\Cliente2D.vcxproj
D:\SO2\Bomberman - Cliente2D\Cliente2D\Debug\Cliente2D.lib
D:\SO2\Bomberman - Cliente2D\Cliente2D\Debug\Cliente2D.exp
^D:\SO2\Bomberman - Cliente2D\Cliente2D\Cliente2D\Cliente2D.vcxproj
D:\SO2\Bomberman - Cliente2D\Cliente2D\Debug\Cliente2D.lib
D:\SO2\Bomberman - Cliente2D\Cliente2D\Debug\Cliente2D.exp
^D:\SO2\Bomberman - Cliente2D\Cliente2D\Cliente2D\Cliente2D.vcxproj
D:\SO2\Bomberman - Cliente2D\Cliente2D\Debug\Cliente2D.lib
D:\SO2\Bomberman - Cliente2D\Cliente2D\Debug\Cliente2D.exp
^D:\SO2\Bomberman - Cliente2D\Cliente2D\Cliente2D\Cliente2D.vcxproj
D:\SO2\Bomberman - Cliente2D\Cliente2D\Debug\Cliente2D.lib
D:\SO2\Bomberman - Cliente2D\Cliente2D\Debug\Cliente2D.exp
^D:\SO2\Bomberman - Cliente2D\Cliente2D\Cliente2D\Cliente2D.vcxproj
D:\SO2\Bomberman - Cliente2D\Cliente2D\Debug\Cliente2D.lib
D:\SO2\Bomberman - Cliente2D\Cliente2D\Debug\Cliente2D.exp
^D:\SO2\Bomberman - Cliente2D\Cliente2D\Cliente2D\Cliente2D.vcxproj
D:\SO2\Bomberman - Cliente2D\Cliente2D\Debug\Cliente2D.lib
D:\SO2\Bomberman - Cliente2D\Cliente2D\Debug\Cliente2D.exp
^D:\SO2\Bomberman - Cliente2D\Cliente2D\Cliente2D\Cliente2D.vcxproj
D:\SO2\Bomberman - Cliente2D\Cliente2D\Debug\Cliente2D.lib
D:\SO2\Bomberman - Cliente2D\Cliente2D\Debug\Cliente2D.exp
^D:\SO2\Bomberman - Cliente2D\Cliente2D\Cliente2D\Cliente2D.vcxproj
D:\SO2\Bomberman - Cliente2D\Cliente2D\Debug\Cliente2D.lib
D:\SO2\Bomberman - Cliente2D\Cliente2D\Debug\Cliente2D.exp
^D:\SO2\Bomberman - Cliente2D\Cliente2D\Cliente2D\Cliente2D.vcxproj
D:\SO2\Bomberman - Cliente2D\Cliente2D\Debug\Cliente2D.lib
D:\SO2\Bomberman - Cliente2D\Cliente2D\Debug\Cliente2D.exp
^D:\SO2\Bomberman - Cliente2D\Cliente2D\Cliente2D\Cliente2D.vcxproj
D:\SO2\Bomberman - Cliente2D\Cliente2D\Debug\Cliente2D.lib
D:\SO2\Bomberman - Cliente2D\Cliente2D\Debug\Cliente2D.exp
^D:\SO2\Bomberman - Cliente2D\Cliente2D\Cliente2D\Cliente2D.vcxproj
D:\SO2\Bomberman - Cliente2D\Cliente2D\Debug\Cliente2D.lib
D:\SO2\Bomberman - Cliente2D\Cliente2D\Debug\Cliente2D.exp
^D:\SO2\Bomberman - Cliente2D\Cliente2D\Cliente2D\Cliente2D.vcxproj
D:\SO2\Bomberman - Cliente2D\Cliente2D\Debug\Cliente2D.lib
D:\SO2\Bomberman - Cliente2D\Cliente2D\Debug\Cliente2D.exp
^D:\SO2\Bomberman - Cliente2D\Cliente2D\Cliente2D\Cliente2D.vcxproj
D:\SO2\Bomberman - Cliente2D\Cliente2D\Debug\Cliente2D.lib
D:\SO2\Bomberman - Cliente2D\Cliente2D\Debug\Cliente2D.exp
^D:\SO2\Bomberman - Cliente2D\Cliente2D\Cliente2D\Cliente2D.vcxproj
D:\SO2\Bomberman - Cliente2D\Cliente2D\Debug\Cliente2D.lib
D:\SO2\Bomberman - Cliente2D\Cliente2D\Debug\Cliente2D.exp
^D:\SO2\Bomberman - Cliente2D\Cliente2D\Cliente2D\Cliente2D.vcxproj
D:\SO2\Bomberman - Cliente2D\Cliente2D\Debug\Cliente2D.lib
D:\SO2\Bomberman - Cliente2D\Cliente2D\Debug\Cliente2D.exp
^D:\SO2\Bomberman - Cliente2D\Cliente2D\Cliente2D\Cliente2D.vcxproj
D:\SO2\Bomberman - Cliente2D\Cliente2D\Debug\Cliente2D.lib
D:\SO2\Bomberman - Cliente2D\Cliente2D\Debug\Cliente2D.exp
^D:\SO2\Bomberman - Cliente2D\Cliente2D\Cliente2D\Cliente2D.vcxproj
D:\SO2\Bomberman - Cliente2D\Cliente2D\Debug\Cliente2D.lib
D:\SO2\Bomberman - Cliente2D\Cliente2D\Debug\Cliente2D.exp
^D:\SO2\Bomberman - Cliente2D\Cliente2D\Cliente2D\Cliente2D.vcxproj
D:\SO2\Bomberman - Cliente2D\Cliente2D\Debug\Cliente2D.lib
D:\SO2\Bomberman - Cliente2D\Cliente2D\Debug\Cliente2D.exp
